# Blender v2.70 (sub 0) OBJ File: 'coin.blend'
# www.blender.org
o Cylinder
v 0.547855 0.844504 -0.590614
v 0.547855 0.708655 -0.590614
v 0.528640 0.844504 -0.395524
v 0.528640 0.708655 -0.395524
v 0.471735 0.844504 -0.207931
v 0.471735 0.708655 -0.207931
v 0.379325 0.844504 -0.035044
v 0.379325 0.708655 -0.035044
v 0.254962 0.844504 0.116492
v 0.254962 0.708655 0.116492
v 0.103425 0.844504 0.240855
v 0.103425 0.708655 0.240855
v -0.069461 0.844504 0.333265
v -0.069461 0.708655 0.333265
v -0.257055 0.844504 0.390171
v -0.257055 0.708655 0.390171
v -0.452145 0.844504 0.409386
v -0.452145 0.708655 0.409386
v -0.647235 0.844504 0.390171
v -0.647235 0.708655 0.390171
v -0.834828 0.844504 0.333265
v -0.834828 0.708655 0.333265
v -1.007715 0.844504 0.240855
v -1.007715 0.708655 0.240855
v -1.159252 0.844504 0.116492
v -1.159252 0.708655 0.116492
v -1.283615 0.844504 -0.035044
v -1.283615 0.708655 -0.035044
v -1.376024 0.844504 -0.207931
v -1.376024 0.708655 -0.207931
v -1.432930 0.844504 -0.395524
v -1.432930 0.708655 -0.395524
v -1.452145 0.844504 -0.590615
v -1.452145 0.708655 -0.590615
v -1.432930 0.844504 -0.785705
v -1.432930 0.708655 -0.785705
v -1.376024 0.844504 -0.973298
v -1.376024 0.708655 -0.973298
v -1.283614 0.844504 -1.146185
v -1.283614 0.708655 -1.146185
v -1.159251 0.844504 -1.297722
v -1.159251 0.708655 -1.297722
v -1.007715 0.844504 -1.422084
v -1.007715 0.708655 -1.422084
v -0.834828 0.844504 -1.514494
v -0.834828 0.708655 -1.514494
v -0.647234 0.844504 -1.571400
v -0.647234 0.708655 -1.571400
v -0.452144 0.844504 -1.590614
v -0.452144 0.708655 -1.590614
v -0.257054 0.844504 -1.571399
v -0.257054 0.708655 -1.571399
v -0.069460 0.844504 -1.514493
v -0.069460 0.708655 -1.514493
v 0.103426 0.844504 -1.422083
v 0.103426 0.708655 -1.422083
v 0.254963 0.844504 -1.297720
v 0.254963 0.708655 -1.297720
v 0.379325 0.844504 -1.146183
v 0.379325 0.708655 -1.146183
v 0.471735 0.844504 -0.973297
v 0.471735 0.708655 -0.973297
v 0.528641 0.844504 -0.785703
v 0.528641 0.708655 -0.785703
v 0.429149 0.844504 -0.590614
v 0.412215 0.844504 -0.418683
v 0.362064 0.844504 -0.253358
v 0.280624 0.844504 -0.100994
v 0.171024 0.844504 0.032554
v 0.037475 0.844504 0.142154
v -0.114888 0.844504 0.223595
v -0.280213 0.844504 0.273745
v -0.452145 0.844504 0.290679
v -0.624077 0.844504 0.273745
v -0.789401 0.844504 0.223595
v -0.941765 0.844504 0.142154
v -1.075313 0.844504 0.032554
v -1.184914 0.844504 -0.100994
v -1.266354 0.844504 -0.253358
v -1.316505 0.844504 -0.418683
v -1.333438 0.844504 -0.590615
v -1.316504 0.844504 -0.762547
v -1.266354 0.844504 -0.927871
v -1.184913 0.844504 -1.080235
v -1.075313 0.844504 -1.213784
v -0.941765 0.844504 -1.323384
v -0.789401 0.844504 -1.404824
v -0.624076 0.844504 -1.454974
v -0.452144 0.844504 -1.471908
v -0.280212 0.844504 -1.454974
v -0.114888 0.844504 -1.404823
v 0.037476 0.844504 -1.323383
v 0.171025 0.844504 -1.213782
v 0.280625 0.844504 -1.080234
v 0.362065 0.844504 -0.927870
v 0.412215 0.844504 -0.762545
v 0.429149 0.793677 -0.590614
v 0.412215 0.793677 -0.418683
v 0.362064 0.793677 -0.253358
v 0.280624 0.793677 -0.100994
v 0.171024 0.793677 0.032554
v 0.037475 0.793677 0.142154
v -0.114888 0.793677 0.223595
v -0.280213 0.793677 0.273745
v -0.452145 0.793677 0.290679
v -0.624077 0.793677 0.273745
v -0.789401 0.793677 0.223595
v -0.941765 0.793677 0.142154
v -1.075313 0.793677 0.032554
v -1.184914 0.793677 -0.100994
v -1.266354 0.793677 -0.253358
v -1.316505 0.793677 -0.418683
v -1.333438 0.793677 -0.590615
v -1.316504 0.793677 -0.762547
v -1.266354 0.793677 -0.927871
v -1.184913 0.793677 -1.080235
v -1.075313 0.793677 -1.213784
v -0.941765 0.793677 -1.323384
v -0.789401 0.793677 -1.404824
v -0.624076 0.793677 -1.454974
v -0.452144 0.793677 -1.471908
v -0.280212 0.793677 -1.454974
v -0.114888 0.793677 -1.404823
v 0.037476 0.793677 -1.323383
v 0.171025 0.793677 -1.213782
v 0.280625 0.793677 -1.080234
v 0.362065 0.793677 -0.927870
v 0.412215 0.793677 -0.762545
v 0.449124 0.708655 -0.590614
v 0.431807 0.708655 -0.414785
v 0.380519 0.708655 -0.245714
v 0.297233 0.708655 -0.089896
v 0.185149 0.708655 0.046679
v 0.048574 0.708655 0.158764
v -0.107244 0.708655 0.242050
v -0.276316 0.708655 0.293337
v -0.452145 0.708655 0.310655
v -0.627974 0.708655 0.293337
v -0.797046 0.708655 0.242050
v -0.952863 0.708655 0.158764
v -1.089439 0.708655 0.046679
v -1.201523 0.708655 -0.089896
v -1.284809 0.708655 -0.245714
v -1.336097 0.708655 -0.414786
v -1.353414 0.708655 -0.590615
v -1.336097 0.708655 -0.766444
v -1.284809 0.708655 -0.935516
v -1.201523 0.708655 -1.091333
v -1.089438 0.708655 -1.227909
v -0.952863 0.708655 -1.339993
v -0.797045 0.708655 -1.423279
v -0.627973 0.708655 -1.474566
v -0.452144 0.708655 -1.491884
v -0.276315 0.708655 -1.474566
v -0.107243 0.708655 -1.423278
v 0.048574 0.708655 -1.339992
v 0.185150 0.708655 -1.227907
v 0.297234 0.708655 -1.091332
v 0.380520 0.708655 -0.935514
v 0.431807 0.708655 -0.766442
v 0.449124 0.771173 -0.590614
v 0.431807 0.771173 -0.414785
v 0.380519 0.771173 -0.245714
v 0.297233 0.771173 -0.089896
v 0.185149 0.771173 0.046679
v 0.048574 0.771173 0.158764
v -0.107244 0.771173 0.242050
v -0.276316 0.771173 0.293337
v -0.452145 0.771173 0.310655
v -0.627974 0.771173 0.293337
v -0.797046 0.771173 0.242050
v -0.952863 0.771173 0.158764
v -1.089439 0.771173 0.046679
v -1.201523 0.771173 -0.089896
v -1.284809 0.771173 -0.245714
v -1.336097 0.771173 -0.414786
v -1.353414 0.771173 -0.590615
v -1.336097 0.771173 -0.766444
v -1.284809 0.771173 -0.935516
v -1.201523 0.771173 -1.091333
v -1.089438 0.771173 -1.227909
v -0.952863 0.771173 -1.339993
v -0.797045 0.771173 -1.423279
v -0.627973 0.771173 -1.474566
v -0.452144 0.771173 -1.491884
v -0.276315 0.771173 -1.474566
v -0.107243 0.771173 -1.423278
v 0.048574 0.771173 -1.339992
v 0.185150 0.771173 -1.227907
v 0.297234 0.771173 -1.091332
v 0.380520 0.771173 -0.935514
v 0.431807 0.771173 -0.766442
vt 0.135678 0.000000
vt 0.137141 0.016222
vt 0.163860 0.016222
vt 0.165324 0.000000
vt 0.194400 0.650926
vt 0.189189 0.632171
vt 0.163564 0.637736
vt 0.165324 0.657241
vt 0.246439 0.365302
vt 0.235051 0.380453
vt 0.253525 0.400622
vt 0.267402 0.388189
vt 0.106601 0.650926
vt 0.111812 0.632171
vt 0.087674 0.621255
vt 0.079212 0.638540
vt 0.033599 0.388189
vt 0.047476 0.400622
vt 0.065951 0.380453
vt 0.054562 0.365302
vt 0.295218 0.445003
vt 0.278039 0.450692
vt 0.283136 0.478668
vt 0.301002 0.476747
vt 0.033599 0.597672
vt 0.047476 0.585238
vt 0.032961 0.561521
vt 0.017129 0.570760
vt 0.295218 0.540858
vt 0.278039 0.535169
vt 0.268041 0.561522
vt 0.283873 0.570761
vt 0.106601 0.334935
vt 0.111812 0.353690
vt 0.137437 0.348125
vt 0.135678 0.328620
vt 0.000000 0.509113
vt 0.017865 0.507192
vt 0.017865 0.478668
vt 0.000000 0.476747
vt 0.246439 0.620559
vt 0.235051 0.605408
vt 0.213327 0.621255
vt 0.221790 0.638540
vt 0.194400 0.334935
vt 0.189189 0.353690
vt 0.213327 0.364606
vt 0.221790 0.347321
vt 0.137437 0.637736
vt 0.135678 0.657241
vt 0.005784 0.445003
vt 0.022963 0.450692
vt 0.032961 0.424339
vt 0.017129 0.415100
vt 0.268041 0.424339
vt 0.283873 0.415100
vt 0.065951 0.605408
vt 0.054562 0.620558
vt 0.087674 0.364606
vt 0.079212 0.347321
vt 0.283136 0.507193
vt 0.301002 0.509114
vt 0.022963 0.535169
vt 0.005784 0.540858
vt 0.253525 0.585239
vt 0.267402 0.597672
vt 0.163564 0.348125
vt 0.165324 0.328620
vt 0.604614 0.569306
vt 0.628752 0.580222
vt 0.654377 0.585786
vt 0.680504 0.585786
vt 0.706128 0.580222
vt 0.730267 0.569306
vt 0.751990 0.553459
vt 0.770465 0.533289
vt 0.784980 0.509572
vt 0.794978 0.483219
vt 0.800076 0.455243
vt 0.800076 0.426719
vt 0.794978 0.398743
vt 0.784980 0.372390
vt 0.770465 0.348673
vt 0.751990 0.328503
vt 0.730267 0.312656
vt 0.706128 0.301740
vt 0.680504 0.296175
vt 0.654377 0.296175
vt 0.628752 0.301740
vt 0.604614 0.312656
vt 0.582890 0.328503
vt 0.564415 0.348673
vt 0.549900 0.372390
vt 0.539902 0.398743
vt 0.534805 0.426719
vt 0.534805 0.455243
vt 0.539902 0.483219
vt 0.549900 0.509572
vt 0.564416 0.533289
vt 0.582890 0.553459
vt 0.283873 0.242140
vt 0.270705 0.234456
vt 0.255861 0.258711
vt 0.267402 0.269052
vt 0.054562 0.036682
vt 0.064034 0.049283
vt 0.086250 0.033077
vt 0.079212 0.018700
vt 0.017129 0.242140
vt 0.030297 0.234456
vt 0.020072 0.207506
vt 0.005784 0.212238
vt 0.301002 0.148127
vt 0.286143 0.149725
vt 0.286143 0.178895
vt 0.301002 0.180493
vt 0.079212 0.309920
vt 0.086250 0.295544
vt 0.064034 0.279337
vt 0.054562 0.291938
vt 0.267402 0.059568
vt 0.255861 0.069910
vt 0.270705 0.094164
vt 0.283873 0.086480
vt 0.017129 0.086480
vt 0.030297 0.094164
vt 0.045141 0.069910
vt 0.033599 0.059568
vt 0.163860 0.312398
vt 0.137141 0.312398
vt 0.194400 0.006314
vt 0.190066 0.021913
vt 0.214751 0.033076
vt 0.221790 0.018700
vt 0.246440 0.291938
vt 0.236967 0.279337
vt 0.214751 0.295544
vt 0.221790 0.309920
vt 0.000000 0.180493
vt 0.014859 0.178895
vt 0.014859 0.149725
vt 0.000000 0.148127
vt 0.106601 0.006314
vt 0.110935 0.021913
vt 0.295218 0.212238
vt 0.280930 0.207506
vt 0.033599 0.269052
vt 0.045141 0.258711
vt 0.295218 0.116383
vt 0.280930 0.121114
vt 0.106601 0.322306
vt 0.110936 0.306707
vt 0.246439 0.036682
vt 0.236967 0.049283
vt 0.005784 0.116383
vt 0.020072 0.121114
vt 0.194400 0.322306
vt 0.190066 0.306707
vt 0.567073 0.104892
vt 0.556848 0.077942
vt 0.542003 0.053687
vt 0.523110 0.033061
vt 0.500894 0.016854
vt 0.476209 0.005691
vt 0.450003 0.000000
vt 0.423284 0.000000
vt 0.397078 0.005691
vt 0.372393 0.016854
vt 0.350177 0.033060
vt 0.331284 0.053687
vt 0.316439 0.077942
vt 0.306214 0.104892
vt 0.301002 0.133502
vt 0.301002 0.162673
vt 0.306214 0.191283
vt 0.316439 0.218234
vt 0.331284 0.242488
vt 0.350177 0.263115
vt 0.372393 0.279321
vt 0.397078 0.290485
vt 0.423284 0.296175
vt 0.450003 0.296175
vt 0.476209 0.290484
vt 0.500894 0.279321
vt 0.523110 0.263115
vt 0.542003 0.242488
vt 0.556848 0.218233
vt 0.567073 0.191283
vt 0.572285 0.162673
vt 0.572285 0.133502
vt 0.403080 0.626386
vt 0.432726 0.626386
vt 0.432726 0.296175
vt 0.403080 0.296175
vt 0.461803 0.626386
vt 0.461803 0.296175
vt 0.489192 0.626386
vt 0.489192 0.296175
vt 0.513842 0.626386
vt 0.513842 0.296175
vt 0.534805 0.626386
vt 0.534805 0.296175
vt 0.489192 0.956596
vt 0.513842 0.956596
vt 0.461803 0.956596
vt 0.432726 0.956596
vt 0.403080 0.956596
vt 0.374004 0.626386
vt 0.374004 0.956596
vt 0.346614 0.626386
vt 0.346614 0.956596
vt 0.321965 0.626386
vt 0.321965 0.956596
vt 0.301002 0.626386
vt 0.301002 0.956596
vt 0.191877 0.657241
vt 0.167228 0.657241
vt 0.167228 0.987451
vt 0.191877 0.987451
vt 0.139838 0.657241
vt 0.139838 0.987451
vt 0.110762 0.657241
vt 0.110762 0.987451
vt 0.081116 0.657241
vt 0.081116 0.987451
vt 0.052039 0.657241
vt 0.052039 0.987451
vt 0.024650 0.657241
vt 0.024650 0.987451
vt 0.000000 0.657241
vt 0.000000 0.987451
vt 0.747645 0.585786
vt 0.726682 0.585786
vt 0.726682 0.915997
vt 0.747645 0.915997
vt 0.702032 0.585786
vt 0.702032 0.915997
vt 0.674643 0.585786
vt 0.674643 0.915997
vt 0.645567 0.585786
vt 0.645567 0.915997
vt 0.615920 0.585786
vt 0.615920 0.915997
vt 0.586844 0.585786
vt 0.586844 0.915997
vt 0.559455 0.585786
vt 0.559455 0.915997
vt 0.534805 0.585786
vt 0.534805 0.915997
vt 0.321965 0.296175
vt 0.301002 0.296175
vt 0.346614 0.296175
vt 0.374004 0.296175
vt 0.963833 0.241464
vt 0.850672 0.241464
vt 0.850672 0.267817
vt 0.963833 0.267817
vt 0.913237 0.500961
vt 0.800076 0.500961
vt 0.800076 0.521131
vt 0.913237 0.521131
vt 1.000000 0.660668
vt 0.886838 0.660668
vt 0.886838 0.688644
vt 1.000000 0.688644
vt 0.963833 0.184963
vt 0.850672 0.184963
vt 0.850672 0.213488
vt 0.963833 0.213488
vt 0.913237 0.450891
vt 0.800076 0.450891
vt 0.800076 0.477244
vt 0.913237 0.477244
vt 1.000000 0.610598
vt 0.886838 0.610598
vt 0.886838 0.634315
vt 1.000000 0.634315
vt 0.963833 0.130634
vt 0.850672 0.130634
vt 0.850672 0.156987
vt 0.963833 0.156987
vt 0.913237 0.394391
vt 0.800076 0.394391
vt 0.800076 0.422915
vt 0.913237 0.422915
vt 1.000000 0.956113
vt 0.886838 0.956113
vt 0.886838 0.979830
vt 1.000000 0.979830
vt 0.913237 0.366415
vt 0.800076 0.366415
vt 0.963833 0.086748
vt 0.850672 0.086748
vt 0.850672 0.106917
vt 0.963833 0.106917
vt 1.000000 0.901784
vt 0.886838 0.901784
vt 0.886838 0.929760
vt 1.000000 0.929760
vt 0.913237 0.316345
vt 0.800076 0.316345
vt 0.800076 0.340062
vt 0.913237 0.340062
vt 1.000000 0.745144
vt 0.886838 0.745144
vt 0.886838 0.771497
vt 1.000000 0.771497
vt 1.000000 0.845284
vt 0.886838 0.845284
vt 0.886838 0.873260
vt 1.000000 0.873260
vt 0.850672 0.291534
vt 0.963833 0.291534
vt 0.886838 0.717168
vt 1.000000 0.717168
vt 1.000000 0.795214
vt 0.886838 0.795214
vt 0.886838 0.818931
vt 1.000000 0.818931
vt 0.886838 1.000000
vt 1.000000 1.000000
vt 0.913237 0.296175
vt 0.800076 0.296175
vt 0.572285 0.137953
vt 0.711478 0.137953
vt 0.711478 0.111002
vt 0.572285 0.111003
vt 0.747645 0.984015
vt 0.886838 0.984015
vt 0.886838 0.959760
vt 0.747645 0.959760
vt 0.747645 0.694772
vt 0.886838 0.694772
vt 0.886838 0.665601
vt 0.747645 0.665601
vt 0.572285 0.086748
vt 0.711478 0.086748
vt 0.711478 0.066121
vt 0.572285 0.066121
vt 0.747645 0.932810
vt 0.886838 0.932810
vt 0.886838 0.904200
vt 0.747645 0.904200
vt 0.747645 0.636991
vt 0.886838 0.636991
vt 0.886838 0.610041
vt 0.747645 0.610041
vt 0.850672 0.111002
vt 0.850672 0.137952
vt 0.572285 0.296175
vt 0.711478 0.296175
vt 0.711478 0.275549
vt 0.572285 0.275549
vt 0.747645 0.875029
vt 0.886838 0.875029
vt 0.886838 0.846419
vt 0.747645 0.846419
vt 0.850672 0.166563
vt 0.711478 0.166563
vt 0.711478 0.195734
vt 0.850672 0.195733
vt 0.572285 0.251294
vt 0.711478 0.251294
vt 0.711478 0.224344
vt 0.572285 0.224344
vt 0.747645 0.819469
vt 0.886838 0.819469
vt 0.747645 0.795214
vt 0.850672 0.224344
vt 0.850672 0.251294
vt 0.572285 0.195734
vt 0.572285 0.166563
vt 0.747645 0.774587
vt 0.886838 0.774587
vt 0.886838 0.750333
vt 0.747645 0.750333
vt 0.850672 0.275549
vt 0.850672 0.296175
vt 0.747645 0.723382
vt 0.886838 0.723382
vt 0.886838 0.585786
vn 0.000000 -1.000000 0.000000
vn 0.000000 1.000000 0.000000
vn 0.000000 1.000000 -0.000001
vn 0.000000 -1.000000 -0.000001
vn 1.000000 0.000000 0.000000
vn 0.980785 0.000000 0.195090
vn 0.923880 0.000000 0.382684
vn 0.831470 0.000000 0.555570
vn 0.707107 0.000000 0.707107
vn 0.555570 0.000000 0.831470
vn 0.382683 0.000000 0.923880
vn 0.195090 0.000000 0.980785
vn 0.000000 0.000000 1.000000
vn -0.195090 0.000000 0.980785
vn -0.382683 0.000000 0.923880
vn -0.555570 0.000000 0.831470
vn -0.707107 0.000000 0.707107
vn -0.831470 0.000000 0.555570
vn -0.923880 0.000000 0.382683
vn -0.980785 0.000000 0.195090
vn -1.000000 0.000000 -0.000000
vn -0.980785 0.000000 -0.195091
vn -0.923879 0.000000 -0.382684
vn -0.831469 0.000000 -0.555571
vn -0.707106 0.000000 -0.707107
vn -0.555570 0.000000 -0.831470
vn -0.382683 0.000000 -0.923880
vn -0.195089 0.000000 -0.980785
vn 0.000001 0.000000 -1.000000
vn 0.195092 0.000000 -0.980785
vn 0.382684 0.000000 -0.923879
vn 0.555571 0.000000 -0.831469
vn 0.707108 0.000000 -0.707106
vn 0.831470 0.000000 -0.555569
vn 0.923880 0.000000 -0.382682
vn 0.980786 0.000000 -0.195089
vn -0.382684 0.000000 0.923879
vn -0.555572 0.000000 0.831469
vn -0.707107 0.000000 -0.707107
vn 0.980785 0.000000 -0.195090
vn -0.000001 0.000000 1.000000
vn -0.195091 0.000000 0.980785
vn -0.923880 0.000000 -0.382683
vn -0.831470 0.000000 -0.555570
vn 0.831469 0.000000 -0.555571
vn 0.923880 0.000000 -0.382683
vn 0.382682 0.000000 0.923880
vn 0.195089 0.000000 0.980786
vn -0.980785 0.000000 -0.195090
vn 0.555570 0.000000 -0.831470
vn 0.707107 0.000000 -0.707107
vn -0.980786 0.000000 0.195089
vn 0.707106 0.000000 0.707107
vn 0.195090 0.000000 -0.980785
vn 0.382683 0.000000 -0.923880
vn -0.831470 0.000000 0.555569
vn -0.923880 0.000000 0.382682
vn 0.923879 0.000000 0.382684
vn 0.831469 0.000000 0.555571
vn -0.195091 0.000000 -0.980785
vn -0.000000 0.000000 -1.000000
vn -0.707108 0.000000 0.707106
vn 0.980785 0.000000 0.195091
vn -0.382684 0.000000 -0.923880
vn 0.831469 0.000000 0.555570
vn -0.555571 0.000000 0.831469
vn 0.923880 0.000000 -0.382684
vn 0.831470 0.000000 -0.555570
s off
f 62/1/1 159/2/1 158/3/1 60/4/1
f 45/5/2 87/6/2 88/7/2 47/8/2
f 23/9/2 76/10/2 77/11/2 25/12/2
f 51/13/2 90/14/2 91/15/2 53/16/2
f 7/17/2 68/18/2 69/19/2 9/20/2
f 29/21/2 79/22/2 80/23/2 31/24/2
f 57/25/2 93/26/2 94/27/2 59/28/2
f 35/29/2 82/30/2 83/31/2 37/32/2
f 13/33/3 71/34/3 72/35/3 15/36/3
f 63/37/2 96/38/2 65/39/2 1/40/2
f 41/41/2 85/42/2 86/43/2 43/44/2
f 19/45/2 74/46/2 75/47/2 21/48/2
f 47/8/3 88/7/3 89/49/3 49/50/3
f 3/51/2 66/52/2 67/53/2 5/54/2
f 25/12/2 77/11/2 78/55/2 27/56/2
f 53/16/2 91/15/2 92/57/2 55/58/2
f 9/20/2 69/19/2 70/59/2 11/60/2
f 31/24/2 80/23/2 81/61/2 33/62/2
f 59/28/2 94/27/2 95/63/2 61/64/2
f 37/32/2 83/31/2 84/65/2 39/66/2
f 1/40/2 65/39/2 66/52/2 3/51/2
f 15/36/2 72/35/2 73/67/2 17/68/2
f 43/44/2 86/43/2 87/6/2 45/5/2
f 21/48/2 75/47/2 76/10/2 23/9/2
f 49/50/2 89/49/2 90/14/2 51/13/2
f 5/54/2 67/53/2 68/18/2 7/17/2
f 27/56/2 78/55/2 79/22/2 29/21/2
f 55/58/2 92/57/2 93/26/2 57/25/2
f 33/62/2 81/61/2 82/30/2 35/29/2
f 11/60/2 70/59/2 71/34/2 13/33/2
f 61/64/2 95/63/2 96/38/2 63/37/2
f 39/66/2 84/65/2 85/42/2 41/41/2
f 17/68/2 73/67/2 74/46/2 19/45/2
f 97/69/2 128/70/2 127/71/2 126/72/2 125/73/2 124/74/2 123/75/2 122/76/2 121/77/2 120/78/2 119/79/2 118/80/2 117/81/2 116/82/2 115/83/2 114/84/2 113/85/2 112/86/2 111/87/2 110/88/2 109/89/2 108/90/2 107/91/2 106/92/2 105/93/2 104/94/2 103/95/2 102/96/2 101/97/2 100/98/2 99/99/2 98/100/2
f 40/101/1 148/102/1 147/103/1 38/104/1
f 4/105/1 130/106/1 129/107/1 2/108/1
f 18/109/1 137/110/1 136/111/1 16/112/1
f 46/113/1 151/114/1 150/115/1 44/116/1
f 24/117/1 140/118/1 139/119/1 22/120/1
f 52/121/1 154/122/1 153/123/1 50/124/1
f 8/125/1 132/126/1 131/127/1 6/128/1
f 30/68/1 143/129/1 142/130/1 28/36/1
f 58/131/1 157/132/1 156/133/1 56/134/1
f 36/135/1 146/136/1 145/137/1 34/138/1
f 14/139/1 135/140/1 134/141/1 12/142/1
f 64/143/1 160/144/1 159/2/1 62/1/1
f 42/145/1 149/146/1 148/102/1 40/101/1
f 20/147/1 138/148/1 137/110/1 18/109/1
f 48/149/1 152/150/1 151/114/1 46/113/1
f 26/151/1 141/152/1 140/118/1 24/117/1
f 54/153/1 155/154/1 154/122/1 52/121/1
f 10/155/1 133/156/1 132/126/1 8/125/1
f 32/157/1 144/158/1 143/129/1 30/68/1
f 60/4/1 158/3/1 157/132/1 58/131/1
f 38/104/1 147/103/1 146/136/1 36/135/1
f 16/112/1 136/111/1 135/140/1 14/139/1
f 2/108/1 129/107/1 160/144/1 64/143/1
f 44/116/1 150/115/1 149/146/1 42/145/1
f 22/120/1 139/119/1 138/148/1 20/147/1
f 50/124/1 153/123/1 152/150/1 48/149/1
f 6/128/1 131/127/1 130/106/1 4/105/1
f 28/36/1 142/130/1 141/152/1 26/151/1
f 56/134/1 156/133/1 155/154/1 54/153/1
f 12/142/4 134/141/4 133/156/4 10/155/4
f 34/138/1 145/137/1 144/158/1 32/157/1
f 162/159/1 163/160/1 164/161/1 165/162/1 166/163/1 167/164/1 168/165/1 169/166/1 170/167/1 171/168/1 172/169/1 173/170/1 174/171/1 175/172/1 176/173/1 177/174/1 178/175/1 179/176/1 180/177/1 181/178/1 182/179/1 183/180/1 184/181/1 185/182/1 186/183/1 187/184/1 188/185/1 189/186/1 190/187/1 191/188/1 192/189/1 161/190/1
s 1
f 1/191/5 3/192/6 4/193/6 2/194/5
f 3/192/6 5/195/7 6/196/7 4/193/6
f 5/195/7 7/197/8 8/198/8 6/196/7
f 7/197/8 9/199/9 10/200/9 8/198/8
f 9/199/9 11/201/10 12/202/10 10/200/9
f 11/199/10 13/197/11 14/203/11 12/204/10
f 13/197/11 15/195/12 16/205/12 14/203/11
f 15/195/12 17/192/13 18/206/13 16/205/12
f 17/192/13 19/191/14 20/207/14 18/206/13
f 19/191/14 21/208/15 22/209/15 20/207/14
f 21/208/15 23/210/16 24/211/16 22/209/15
f 23/210/16 25/212/17 26/213/17 24/211/16
f 25/212/17 27/214/18 28/215/18 26/213/17
f 27/216/18 29/217/19 30/218/19 28/219/18
f 29/217/19 31/220/20 32/221/20 30/218/19
f 31/220/20 33/222/21 34/223/21 32/221/20
f 33/222/21 35/224/22 36/225/22 34/223/21
f 35/224/22 37/226/23 38/227/23 36/225/22
f 37/226/23 39/228/24 40/229/24 38/227/23
f 39/228/24 41/230/25 42/231/25 40/229/24
f 41/232/25 43/233/26 44/234/26 42/235/25
f 43/233/26 45/236/27 46/237/27 44/234/26
f 45/236/27 47/238/28 48/239/28 46/237/27
f 47/238/28 49/240/29 50/241/29 48/239/28
f 49/240/29 51/242/30 52/243/30 50/241/29
f 51/242/30 53/244/31 54/245/31 52/243/30
f 53/244/31 55/246/32 56/247/32 54/245/31
f 55/246/32 57/248/33 58/249/33 56/247/32
f 57/214/33 59/212/34 60/250/34 58/251/33
f 59/212/34 61/210/35 62/252/35 60/250/34
f 63/208/36 1/191/5 2/194/5 64/253/36
f 61/210/35 63/208/36 64/253/36 62/252/35
f 91/254/37 123/255/37 124/256/38 92/257/38
f 69/258/39 101/259/39 102/260/26 70/261/26
f 80/262/40 112/263/40 113/264/5 81/265/5
f 89/266/41 121/267/41 122/268/42 90/269/42
f 67/270/43 99/271/43 100/272/44 68/273/44
f 78/274/45 110/275/45 111/276/46 79/277/46
f 87/278/47 119/279/47 120/280/48 88/281/48
f 65/282/21 97/283/21 98/284/49 66/285/49
f 76/286/50 108/287/50 109/288/51 77/289/51
f 96/290/52 128/291/52 97/283/21 65/282/21
f 85/292/53 117/293/53 118/294/10 86/295/10
f 74/296/54 106/297/54 107/298/55 75/299/55
f 94/300/56 126/301/56 127/302/57 95/303/57
f 83/304/58 115/305/58 116/306/59 84/307/59
f 72/308/60 104/309/60 105/310/61 73/311/61
f 92/257/38 124/256/38 125/312/62 93/313/62
f 81/265/5 113/264/5 114/314/63 82/315/63
f 70/316/26 102/317/26 103/318/64 71/319/64
f 90/269/42 122/268/42 123/255/37 91/254/37
f 68/273/44 100/272/44 101/259/39 69/258/39
f 79/277/46 111/276/46 112/263/40 80/262/40
f 88/281/48 120/280/48 121/267/41 89/266/41
f 66/285/49 98/284/49 99/271/43 67/270/43
f 77/289/51 109/288/51 110/320/45 78/321/45
f 86/295/10 118/294/10 119/279/47 87/278/47
f 75/299/55 107/298/55 108/287/50 76/286/50
f 95/303/57 127/302/57 128/291/52 96/290/52
f 84/307/59 116/306/59 117/317/53 85/316/53
f 73/311/61 105/310/61 106/297/54 74/296/54
f 93/322/62 125/323/62 126/301/56 94/300/56
f 82/315/63 114/314/63 115/305/58 83/304/58
f 71/319/64 103/318/64 104/309/60 72/308/60
f 160/324/52 192/325/52 191/326/57 159/327/57
f 149/328/53 181/329/53 180/330/65 148/331/65
f 138/332/54 170/333/54 169/334/61 137/335/61
f 158/336/56 190/337/56 189/338/62 157/339/62
f 147/340/58 179/341/58 178/342/63 146/343/63
f 136/344/60 168/345/60 167/346/64 135/347/64
f 156/348/66 188/326/66 187/325/37 155/349/37
f 134/350/26 166/351/26 165/352/39 133/353/39
f 145/354/5 177/355/5 176/356/40 144/357/40
f 154/358/42 186/359/42 185/360/41 153/361/41
f 132/362/44 164/363/44 163/364/43 131/365/43
f 143/366/67 175/367/67 174/317/68 142/368/68
f 152/369/48 184/364/48 183/363/11 151/370/11
f 130/371/49 162/360/49 161/359/21 129/372/21
f 141/373/51 173/374/51 172/375/50 140/376/50
f 129/372/21 161/359/21 192/325/52 160/324/52
f 150/377/10 182/352/10 181/351/53 149/378/53
f 139/379/55 171/380/55 170/333/54 138/332/54
f 159/327/57 191/326/57 190/337/56 158/336/56
f 148/331/65 180/330/65 179/341/58 147/340/58
f 137/335/61 169/334/61 168/345/60 136/344/60
f 157/293/62 189/337/62 188/326/66 156/348/66
f 146/343/63 178/342/63 177/355/5 145/354/5
f 135/347/64 167/346/64 166/381/26 134/232/26
f 155/349/37 187/325/37 186/359/42 154/358/42
f 133/353/39 165/352/39 164/363/44 132/362/44
f 144/357/40 176/356/40 175/367/67 143/366/67
f 153/361/41 185/360/41 184/364/48 152/369/48
f 131/365/43 163/364/43 162/360/49 130/371/49
f 142/368/68 174/317/68 173/374/51 141/373/51
f 151/370/11 183/363/11 182/352/10 150/377/10
f 140/376/50 172/375/50 171/380/55 139/379/55
o Cube.002_Cube.004
v -0.637795 3.475451 -0.171132
