# This file uses centimeters as units for non-parametric coordinates.

mtllib Uvd_windmill.mtl
g default
v -1.291097 -0.135477 3.054620
v -1.291097 -0.135477 1.054620
v 0.708903 -0.135477 1.054620
v 0.708903 -0.135477 3.054620
v -1.291097 4.083538 2.633807
v -1.291097 4.083538 1.054620
v 0.708903 4.083538 1.054620
v 0.708903 4.083538 2.633807
v -1.291097 0.888783 3.054620
v -1.291097 0.888783 1.054620
v 0.708903 0.888783 1.054620
v 0.708903 0.888783 3.054620
v -1.291097 4.083538 0.686401
v 0.708903 4.083538 0.686401
v -1.291097 0.888783 0.686401
v 0.708903 0.888783 0.686401
v -1.291097 4.694200 2.031240
v -1.291097 5.082191 1.433818
v 0.708903 5.082191 1.433818
v 0.708903 4.694200 2.031240
v -1.291097 5.499888 0.686253
v 0.708903 5.499888 0.686549
v -1.291097 -0.135477 -1.681818
v -1.291097 -0.135477 0.318182
v 0.708903 -0.135477 0.318182
v 0.708903 -0.135477 -1.681818
v -1.291097 4.083538 -1.261005
v -1.291097 4.083538 0.318182
v 0.708903 4.083538 0.318182
v 0.708903 4.083538 -1.261005
v -1.291097 0.888783 -1.681818
v -1.291097 0.888783 0.318182
v 0.708903 0.888783 0.318182
v 0.708903 0.888783 -1.681818
v -1.291097 4.694200 -0.658438
v -1.291097 5.082191 -0.061016
v 0.708903 5.082191 -0.061016
v 0.708903 4.694200 -0.658438
v -0.291097 -0.135477 1.054620
v -0.291097 4.153076 2.633807
v -0.291097 -0.135477 3.054620
v -0.291097 0.888783 1.054620
v -0.291097 0.888783 3.054620
v -0.291097 0.888783 0.686401
v -0.291097 5.151730 1.433818
v -0.291097 4.763738 2.031240
v -0.291097 5.569427 0.686401
v -0.291097 -0.135477 0.318182
v -0.291097 4.153076 -1.261005
v -0.291097 -0.135477 -1.681818
v -0.291097 0.888783 0.318182
v -0.291097 0.888783 -1.681818
v -0.291097 5.151730 -0.061016
v -0.291097 4.763738 -0.658438
vt 0.355162 0.183024
vt 0.001674 0.183024
vt 0.001674 0.001992
vt 0.355162 0.001992
vt 0.355162 0.747677
vt 0.076050 0.747677
vt 0.288141 0.924183
vt 0.182550 0.855608
vt 0.420242 0.183024
vt 0.420242 0.747677
vt 0.420216 0.998008
vt 0.485323 0.747677
vt 0.485323 0.183024
vt 0.552344 0.924183
vt 0.838811 0.183024
vt 0.764434 0.747677
vt 0.657934 0.855608
vt 0.485323 0.001992
vt 0.838811 0.001992
vt 0.838811 0.183024
vt 0.485323 0.183024
vt 0.485323 0.001992
vt 0.838811 0.001992
vt 0.764434 0.747677
vt 0.485323 0.747677
vt 0.657934 0.855608
vt 0.552344 0.924183
vt 0.420242 0.747677
vt 0.420242 0.183024
vt 0.420216 0.998008
vt 0.355162 0.183024
vt 0.355162 0.747677
vt 0.288141 0.924183
vt 0.076050 0.747677
vt 0.001674 0.183024
vt 0.182550 0.855608
vt 0.001674 0.001992
vt 0.355162 0.001992
vt 0.922029 0.117176
vt 0.862899 0.117176
vt 0.862899 0.004430
vt 0.922029 0.004430
vt 0.922029 0.476494
vt 0.862899 0.468839
vt 0.981160 0.117176
vt 0.981160 0.004430
vt 0.922029 0.543712
vt 0.862899 0.536058
vt 0.981160 0.468839
vt 0.981160 0.536058
vt 0.922029 0.586421
vt 0.862899 0.578766
vt 0.981160 0.578766
vt 0.865887 0.783365
vt 0.865887 0.607808
vt 0.969918 0.607808
vt 0.969939 0.783365
vt 0.865887 0.958921
vt 0.969960 0.958921
vt 0.922591 0.117516
vt 0.922591 0.004907
vt 0.863538 0.004907
vt 0.863538 0.117516
vt 0.981644 0.117516
vt 0.981644 0.004907
vt 0.922591 0.476398
vt 0.863538 0.468753
vt 0.981644 0.468753
vt 0.863538 0.535890
vt 0.922591 0.543536
vt 0.981644 0.535890
vt 0.863538 0.578547
vt 0.922591 0.586192
vt 0.981644 0.578547
vt 0.970306 0.783117
vt 0.867053 0.783117
vt 0.867032 0.607561
vt 0.970306 0.607561
vt 0.970306 0.958673
vt 0.867073 0.958673
vn -1.000000 0.000000 0.000000
vn -1.000000 0.000000 0.000000
vn -1.000000 0.000000 0.000000
vn -1.000000 0.000000 0.000000
vn 0.000000 0.000000 -1.000000
vn 0.000000 0.000000 -1.000000
vn 0.000000 0.000000 -1.000000
vn 0.000000 0.000000 -1.000000
vn 1.000000 0.000000 0.000000
vn 1.000000 0.000000 0.000000
vn 1.000000 0.000000 0.000000
vn 1.000000 0.000000 0.000000
vn 0.000000 0.000000 1.000000
vn 0.000000 0.000000 1.000000
vn 0.000000 0.000000 1.000000
vn 0.000000 0.000000 1.000000
vn 0.000000 -1.000000 0.000000
vn 0.000000 -1.000000 0.000000
vn 0.000000 -1.000000 0.000000
vn 0.000000 -1.000000 0.000000
vn 1.000000 0.000000 0.000000
vn 1.000000 0.000000 0.000000
vn 1.000000 0.000000 0.000000
vn 1.000000 0.000000 0.000000
vn -1.000000 0.000000 0.000000
vn -1.000000 0.000000 0.000000
vn -1.000000 0.000000 0.000000
vn -1.000000 0.000000 0.000000
vn 0.000000 -1.000000 0.000000
vn 0.000000 -1.000000 0.000000
vn 0.000000 -1.000000 0.000000
vn 0.000000 -1.000000 0.000000
vn 1.000000 0.000000 0.000000
vn 1.000000 0.000000 0.000000
vn 1.000000 0.000000 0.000000
vn 1.000000 0.000000 0.000000
vn -0.004492 0.129208 0.991607
vn -0.004492 0.129208 0.991607
vn -0.004492 0.129208 0.991607
vn -0.004492 0.129208 0.991607
vn 0.000000 0.000000 1.000000
vn 0.000000 0.000000 1.000000
vn 0.000000 0.000000 1.000000
vn 0.000000 0.000000 1.000000
vn 1.000000 0.000000 0.000000
vn 1.000000 0.000000 0.000000
vn 1.000000 0.000000 0.000000
vn 1.000000 0.000000 0.000000
vn -1.000000 0.000000 0.000000
vn -1.000000 0.000000 0.000000
vn -1.000000 0.000000 0.000000
vn -1.000000 0.000000 0.000000
vn -1.000000 0.000000 0.000000
vn -1.000000 0.000000 0.000000
vn -1.000000 0.000000 0.000000
vn -1.000000 0.000000 0.000000
vn 0.000000 0.000000 -1.000000
vn 0.000000 0.000000 -1.000000
vn 0.000000 0.000000 -1.000000
vn 0.000000 0.000000 -1.000000
vn 1.000000 0.000000 0.000000
vn 1.000000 0.000000 0.000000
vn 1.000000 0.000000 0.000000
vn 1.000000 0.000000 0.000000
vn -1.000000 0.000000 0.000000
vn -1.000000 0.000000 0.000000
vn -1.000000 0.000000 0.000000
vn -1.000000 0.000000 0.000000
vn -1.000000 0.000000 0.000000
vn -1.000000 0.000000 0.000000
vn -1.000000 0.000000 0.000000
vn -1.000000 0.000000 0.000000
vn 0.000000 0.000000 1.000000
vn 0.000000 0.000000 1.000000
vn 0.000000 0.000000 1.000000
vn 0.000000 0.000000 1.000000
vn 1.000000 0.000000 0.000000
vn 1.000000 0.000000 0.000000
vn 1.000000 0.000000 0.000000
vn 1.000000 0.000000 0.000000
vn 0.000000 0.000000 -1.000000
vn 0.000000 0.000000 -1.000000
vn 0.000000 0.000000 -1.000000
vn 0.000000 0.000000 -1.000000
vn 0.000000 -1.000000 0.000000
vn 0.000000 -1.000000 0.000000
vn 0.000000 -1.000000 0.000000
vn 0.000000 -1.000000 0.000000
vn -1.000000 0.000000 0.000000
vn -1.000000 0.000000 0.000000
vn -1.000000 0.000000 0.000000
vn -1.000000 0.000000 0.000000
vn 1.000000 0.000000 0.000000
vn 1.000000 0.000000 0.000000
vn 1.000000 0.000000 0.000000
vn 1.000000 0.000000 0.000000
vn -0.004492 0.129208 -0.991607
vn -0.004492 0.129208 -0.991607
vn -0.004492 0.129208 -0.991607
vn -0.004492 0.129208 -0.991607
vn 1.000000 0.000000 0.000000
vn 1.000000 0.000000 0.000000
vn 1.000000 0.000000 0.000000
vn 1.000000 0.000000 0.000000
vn -1.000000 0.000000 0.000000
vn -1.000000 0.000000 0.000000
vn -1.000000 0.000000 0.000000
vn -1.000000 0.000000 0.000000
vn 0.000000 -1.000000 0.000000
vn 0.000000 -1.000000 0.000000
vn 0.000000 -1.000000 0.000000
vn 0.000000 -1.000000 0.000000
vn -1.000000 0.000000 0.000000
vn -1.000000 0.000000 0.000000
vn -1.000000 0.000000 0.000000
vn -1.000000 0.000000 0.000000
vn 1.000000 0.000000 0.000000
vn 1.000000 0.000000 0.000000
vn 1.000000 0.000000 0.000000
vn 1.000000 0.000000 0.000000
vn 1.000000 0.000000 0.000000
vn 1.000000 0.000000 0.000000
vn 1.000000 0.000000 0.000000
vn 1.000000 0.000000 0.000000
vn -1.000000 0.000000 0.000000
vn -1.000000 0.000000 0.000000
vn -1.000000 0.000000 0.000000
vn -1.000000 0.000000 0.000000
vn 0.000000 -1.000000 0.000000
vn 0.000000 -1.000000 0.000000
vn 0.000000 -1.000000 0.000000
vn 0.000000 -1.000000 0.000000
vn 0.000000 -1.000000 0.000000
vn 0.000000 -1.000000 0.000000
vn 0.000000 -1.000000 0.000000
vn 0.000000 -1.000000 0.000000
vn 0.004492 0.129208 0.991607
vn 0.004492 0.129208 0.991607
vn 0.004492 0.129208 0.991607
vn 0.004492 0.129208 0.991607
vn 0.000000 0.000000 1.000000
vn 0.000000 0.000000 1.000000
vn 0.000000 0.000000 1.000000
vn 0.000000 0.000000 1.000000
vn 0.000000 0.000000 -1.000000
vn 0.000000 0.000000 -1.000000
vn 0.000000 0.000000 -1.000000
vn 0.000000 0.000000 -1.000000
vn 0.000000 -1.000000 0.000000
vn 0.000000 -1.000000 0.000000
vn 0.000000 -1.000000 0.000000
vn 0.000000 -1.000000 0.000000
vn 0.004492 0.129208 -0.991607
vn 0.004492 0.129208 -0.991607
vn 0.004492 0.129208 -0.991607
vn 0.004492 0.129208 -0.991607
vn 0.000000 -1.000000 0.000000
vn 0.000000 -1.000000 0.000000
vn 0.000000 -1.000000 0.000000
vn 0.000000 -1.000000 0.000000
vn 0.000000 0.776932 0.629584
vn 0.000000 0.856657 0.515886
vn -0.059429 0.854372 0.516253
vn -0.053684 0.772003 0.633348
vn 0.000000 0.856657 0.515886
vn 0.059392 0.854352 0.516289
vn 0.069371 0.997591 0.000090
vn 0.000000 1.000000 0.000000
vn 0.000000 0.702373 0.711809
vn 0.048783 0.701537 0.710961
vn 0.053683 0.772003 0.633348
vn 0.000000 0.776932 0.629584
vn 0.000000 0.776932 -0.629584
vn -0.053683 0.772003 -0.633347
vn -0.059392 0.854352 -0.516289
vn 0.000000 0.856657 -0.515886
vn 0.000000 0.856657 -0.515886
vn 0.000000 1.000000 0.000000
vn 0.069371 0.997591 0.000090
vn 0.059429 0.854372 -0.516253
vn 0.000000 0.702374 -0.711809
vn 0.000000 0.776932 -0.629584
vn 0.053683 0.772003 -0.633347
vn 0.048783 0.701537 -0.710961
vn 0.053683 0.772003 0.633348
vn 0.059392 0.854352 0.516289
vn 0.000000 0.856657 0.515886
vn 0.000000 0.776932 0.629584
vn -0.059429 0.854372 0.516253
vn 0.000000 0.856657 0.515886
vn 0.000000 1.000000 0.000000
vn -0.069371 0.997591 -0.000090
vn -0.048784 0.701537 0.710961
vn 0.000000 0.702373 0.711809
vn 0.000000 0.776932 0.629584
vn -0.053684 0.772003 0.633348
vn 0.053683 0.772003 -0.633347
vn 0.000000 0.776932 -0.629584
vn 0.000000 0.856657 -0.515886
vn 0.059429 0.854372 -0.516253
vn -0.059392 0.854352 -0.516289
vn -0.069371 0.997591 -0.000090
vn 0.000000 1.000000 0.000000
vn 0.000000 0.856657 -0.515886
vn -0.048783 0.701537 -0.710961
vn -0.053683 0.772003 -0.633347
vn 0.000000 0.776932 -0.629584
vn 0.000000 0.702374 -0.711809
s off
g Mesh
usemtl initialShadingGroup
f 9/20/1 10/21/2 2/22/3 1/23/4
f 42//5 11//6 3//7 39//8
f 11/1/9 12/2/10 4/3/11 3/4/12
f 43/39/13 9/40/14 1/41/15 41/42/16
f 41//17 39//18 3//19 4//20
f 7/5/21 14/10/22 22/11/23 19/7/24
f 5/24/25 6/25/26 10/21/27 9/20/28
f 42//29 10//30 15//31 44//32
f 7/5/33 8/6/34 12/2/35 11/1/36
f 40/43/37 5/44/38 9/40/39 43/39/40
f 12/45/41 43/39/42 41/42/43 4/46/44
f 7/5/45 11/1/46 16/9/47 14/10/48
f 10/21/49 6/25/50 13/28/51 15/29/52
f 13/28/53 6/25/54 18/27/55 21/30/56
f 10//57 42//58 39//59 2//60
f 8/6/61 7/5/62 19/7/63 20/8/64
f 6/25/65 5/24/66 17/26/67 18/27/68
f 31/35/69 23/37/70 24/38/71 32/31/72
f 51//73 48//74 25//75 33//76
f 33/13/77 25/18/78 26/19/79 34/15/80
f 52/60/81 50/61/82 23/62/83 31/63/84
f 50//85 26//86 25//87 48//88
f 27/34/89 31/35/90 32/31/91 28/32/92
f 29/12/93 33/13/94 34/15/95 30/16/96
f 49/66/97 52/60/98 31/63/99 27/67/100
f 30/16/101 38/17/102 37/14/103 29/12/104
f 28/32/105 36/33/106 35/36/107 27/34/108
f 51//109 44//110 15//111 32//112
f 13/28/113 21/30/114 36/33/115 28/32/116
f 29/12/117 14/10/118 16/9/119 33/13/120
f 29/12/121 37/14/122 22/11/123 14/10/124
f 32/31/125 15/29/126 13/28/127 28/32/128
f 1//129 2//130 39//131 41//132
f 11//133 42//134 44//135 16//136
f 8/49/137 40/43/138 43/39/139 12/45/140
f 32//141 24//142 48//143 51//144
f 34/64/145 26/65/146 50/61/147 52/60/148
f 23//149 50//150 48//151 24//152
f 30/68/153 34/64/154 52/60/155 49/66/156
f 33//157 16//158 44//159 51//160
f 46/47/161 45/51/162 18/52/163 17/48/164
f 45/54/165 19/55/166 22/56/167 47/57/168
f 40/43/169 8/49/170 20/50/171 46/47/172
f 54/70/173 35/69/174 36/72/175 53/73/176
f 53/75/177 47/76/178 22/77/179 37/78/180
f 49/66/181 54/70/182 38/71/183 30/68/184
f 20/50/185 19/53/186 45/51/187 46/47/188
f 18/58/189 45/54/190 47/57/191 21/59/192
f 5/44/193 40/43/194 46/47/195 17/48/196
f 38/71/197 54/70/198 53/73/199 37/74/200
f 36/79/201 21/80/202 47/76/203 53/75/204
f 27/67/205 35/69/206 54/70/207 49/66/208
