# Blender v2.70 (sub 0) OBJ File: 'bomb.blend'
# www.blender.org
o Sphere.002
v 0.104361 0.961413 0.034768
o Sphere.001
v -0.000000 0.926189 0.000000
o Sphere
v 0.102201 0.911636 0.040682
v -0.109951 0.911636 -0.003274
v -0.866025 -0.500000 0.000000
v -0.500000 -0.866025 0.000000
v -0.082123 0.911636 -0.073183
v -0.663414 0.500000 -0.556670
v -0.766044 -0.000000 -0.642787
v -0.663414 -0.500000 -0.556670
v -0.383022 -0.866025 -0.321394
v -0.015869 0.911636 -0.108849
v -0.150384 0.500000 -0.852868
v -0.173648 -0.000000 -0.984807
v -0.150384 -0.500000 -0.852868
v -0.086824 -0.866025 -0.492404
v 0.057811 0.911636 -0.093584
v 0.433012 0.500000 -0.750000
v 0.500000 -0.000000 -0.866025
v 0.433012 -0.500000 -0.750000
v 0.250000 -0.866025 -0.433013
v 0.104440 0.911636 -0.034529
v 0.813797 0.500000 -0.296198
v 0.939692 -0.000000 -0.342020
v 0.813797 -0.500000 -0.296198
v 0.469846 -0.866025 -0.171010
v 0.813797 0.500000 0.296198
v 0.939692 -0.000000 0.342020
v 0.813797 -0.500000 0.296198
v 0.469846 -0.866025 0.171010
v -0.000000 -1.000000 0.000000
v 0.052140 0.911636 0.096858
v 0.433013 0.500000 0.750000
v 0.500000 -0.000000 0.866025
v 0.433013 -0.500000 0.750000
v 0.250000 -0.866025 0.433013
v -0.022317 0.911636 0.107712
v -0.150384 0.500000 0.852868
v -0.173648 -0.000000 0.984807
v -0.150384 -0.500000 0.852868
v -0.086824 -0.866025 0.492404
v -0.086332 0.911636 0.068167
v -0.663414 0.500000 0.556670
v -0.766044 -0.000000 0.642788
v -0.663414 -0.500000 0.556670
v -0.383022 -0.866025 0.321394
v -0.866025 0.500000 0.000000
v -1.000000 -0.000000 0.000000
v -0.387829 0.859751 -0.325427
v -0.087914 0.859751 -0.498583
v 0.253137 0.859751 -0.438447
v 0.475742 0.859751 -0.173156
v 0.475742 0.859751 0.173156
v 0.253137 0.859751 0.438447
v -0.087914 0.859751 0.498583
v -0.387829 0.859751 0.325427
v -0.506275 0.859751 0.000000
v -0.000000 1.297725 -0.000000
v -0.015869 1.297725 -0.108849
v 0.057811 1.297725 -0.093584
v 0.104440 1.297725 -0.034529
v 0.102201 1.297725 0.040682
v 0.052140 1.297725 0.096858
v -0.022317 1.297725 0.107712
v -0.086332 1.297725 0.068167
v -0.109951 1.297725 -0.003274
v -0.082123 1.297725 -0.073183
vt 0.941307 0.925079
vt 0.941307 0.960537
vt 0.925079 0.960537
vt 0.151844 0.924078
vt 0.077924 0.959536
vt 0.077924 0.924078
vt 0.960537 0.925079
vt 0.960537 0.960537
vt 0.944310 0.960537
vt 0.924078 0.959536
vt 0.940306 0.924078
vt 0.924078 0.924078
vt 0.979768 0.886617
vt 0.979768 0.922076
vt 0.963540 0.922076
vt 0.960537 0.886617
vt 0.960537 0.922076
vt 0.944310 0.922076
vt 0.943309 0.959536
vt 0.943309 0.924078
vt 0.959536 0.924078
vt 0.943309 0.921075
vt 0.959536 0.885616
vt 0.943309 0.885616
vt 0.962539 0.921075
vt 0.962539 0.885616
vt 0.978767 0.885616
vt 0.152845 0.001001
vt 0.001001 0.001001
vt 0.001001 0.152845
vt 0.152845 0.152845
vt 0.152845 0.154847
vt 0.001001 0.154847
vt 0.001001 0.306691
vt 0.152845 0.306691
vt 0.306691 0.001001
vt 0.154847 0.001001
vt 0.154847 0.152845
vt 0.306691 0.152845
vt 0.306691 0.154847
vt 0.154847 0.154847
vt 0.154847 0.306691
vt 0.306691 0.306691
vt 0.308693 0.960537
vt 0.383614 0.960537
vt 0.383614 0.924078
vt 0.308693 0.924078
vt 0.460537 0.001001
vt 0.308693 0.001001
vt 0.308693 0.152845
vt 0.460537 0.152845
vt 0.306691 0.308693
vt 0.154847 0.308693
vt 0.154847 0.460537
vt 0.306691 0.460537
vt 0.152845 0.308693
vt 0.001001 0.308693
vt 0.001001 0.460537
vt 0.152845 0.460537
vt 0.960537 0.383614
vt 0.960537 0.308693
vt 0.924078 0.308693
vt 0.924078 0.383614
vt 0.460537 0.462539
vt 0.308693 0.462539
vt 0.308693 0.614384
vt 0.460537 0.614384
vt 0.306691 0.462539
vt 0.154847 0.462539
vt 0.154847 0.614384
vt 0.306691 0.614384
vt 0.152845 0.462539
vt 0.001001 0.462539
vt 0.001001 0.614384
vt 0.152845 0.614384
vt 0.539463 0.960537
vt 0.614384 0.960537
vt 0.614384 0.924078
vt 0.539463 0.924078
vt 0.614384 0.001001
vt 0.462539 0.001001
vt 0.462539 0.152845
vt 0.614384 0.152845
vt 0.614384 0.308693
vt 0.462539 0.308693
vt 0.462539 0.460537
vt 0.614384 0.460537
vt 0.614384 0.462539
vt 0.462539 0.462539
vt 0.462539 0.614384
vt 0.614384 0.614384
vt 0.152845 0.616386
vt 0.001001 0.616386
vt 0.001001 0.768230
vt 0.152845 0.768230
vt 0.460537 0.616386
vt 0.308693 0.616386
vt 0.308693 0.768230
vt 0.460537 0.768230
vt 0.306691 0.616386
vt 0.154847 0.616386
vt 0.154847 0.768230
vt 0.306691 0.768230
vt 0.768230 0.308693
vt 0.616386 0.308693
vt 0.616386 0.460537
vt 0.768230 0.460537
vt 0.768230 0.154847
vt 0.616386 0.154847
vt 0.616386 0.306691
vt 0.768230 0.306691
vt 0.768230 0.001001
vt 0.616386 0.001001
vt 0.616386 0.152845
vt 0.768230 0.152845
vt 0.960537 0.306691
vt 0.960537 0.231770
vt 0.924078 0.231770
vt 0.924078 0.306691
vt 0.768230 0.462539
vt 0.616386 0.462539
vt 0.616386 0.614384
vt 0.768230 0.614384
vt 0.768230 0.616386
vt 0.616386 0.616386
vt 0.616386 0.768230
vt 0.768230 0.768230
vt 0.922076 0.462539
vt 0.770232 0.462539
vt 0.770232 0.614384
vt 0.922076 0.614384
vt 0.385616 0.960537
vt 0.460537 0.960537
vt 0.460537 0.924078
vt 0.385616 0.924078
vt 0.306691 0.770232
vt 0.154847 0.770232
vt 0.154847 0.922076
vt 0.306691 0.922076
vt 0.771233 0.998999
vt 0.922076 0.925079
vt 0.922076 0.998999
vt 0.152845 0.770232
vt 0.001001 0.770232
vt 0.001001 0.922076
vt 0.152845 0.922076
vt 0.922076 0.154847
vt 0.770232 0.154847
vt 0.770232 0.306691
vt 0.922076 0.306691
vt 0.960537 0.845153
vt 0.960537 0.770232
vt 0.924078 0.770232
vt 0.924078 0.845153
vt 0.998999 0.463540
vt 0.998999 0.614384
vt 0.925079 0.614384
vt 0.921075 0.924078
vt 0.770232 0.997998
vt 0.770232 0.924078
vt 0.998999 0.617387
vt 0.925079 0.768230
vt 0.998999 0.768230
vt 0.924078 0.613383
vt 0.997998 0.462539
vt 0.924078 0.462539
vt 0.617387 0.998999
vt 0.768230 0.998999
vt 0.768230 0.925079
vt 0.767229 0.924078
vt 0.616386 0.997998
vt 0.616386 0.924078
vt 0.078925 0.960537
vt 0.152845 0.925079
vt 0.152845 0.960537
vt 0.924078 0.767229
vt 0.924078 0.616386
vt 0.997998 0.616386
vt 0.460537 0.770232
vt 0.308693 0.770232
vt 0.308693 0.922076
vt 0.460537 0.922076
vt 0.922076 0.001001
vt 0.770232 0.001001
vt 0.770232 0.152845
vt 0.922076 0.152845
vt 0.154847 0.960537
vt 0.229768 0.960537
vt 0.229768 0.924078
vt 0.154847 0.924078
vt 0.922076 0.616386
vt 0.770232 0.616386
vt 0.770232 0.768230
vt 0.922076 0.768230
vt 0.922076 0.770232
vt 0.770232 0.770232
vt 0.770232 0.922076
vt 0.922076 0.922076
vt 0.768230 0.770232
vt 0.616386 0.770232
vt 0.616386 0.922076
vt 0.768230 0.922076
vt 0.614384 0.770232
vt 0.462539 0.770232
vt 0.462539 0.922076
vt 0.614384 0.922076
vt 0.922076 0.308693
vt 0.770232 0.308693
vt 0.770232 0.460537
vt 0.922076 0.460537
vt 0.614384 0.616386
vt 0.462539 0.616386
vt 0.462539 0.768230
vt 0.614384 0.768230
vt 0.614384 0.154847
vt 0.462539 0.154847
vt 0.462539 0.306691
vt 0.614384 0.306691
vt 0.460537 0.308693
vt 0.308693 0.308693
vt 0.308693 0.460537
vt 0.460537 0.460537
vt 0.460537 0.154847
vt 0.308693 0.154847
vt 0.308693 0.306691
vt 0.460537 0.306691
vt 0.960537 0.460537
vt 0.960537 0.385616
vt 0.924078 0.385616
vt 0.924078 0.460537
vt 0.462539 0.960537
vt 0.537461 0.960537
vt 0.537461 0.924078
vt 0.462539 0.924078
vt 0.960537 0.075922
vt 0.960537 0.001001
vt 0.943309 0.001001
vt 0.943309 0.075922
vt 0.231770 0.960537
vt 0.306691 0.960537
vt 0.306691 0.943309
vt 0.231770 0.943309
vt 0.941307 0.075922
vt 0.941307 0.001001
vt 0.924078 0.001001
vt 0.924078 0.075922
vt 0.001001 0.960537
vt 0.075922 0.960537
vt 0.075922 0.943309
vt 0.001001 0.943309
vt 0.941307 0.152845
vt 0.941307 0.077924
vt 0.924078 0.077924
vt 0.924078 0.152845
vt 0.231770 0.941307
vt 0.306691 0.941307
vt 0.306691 0.924078
vt 0.231770 0.924078
vt 0.941307 0.229768
vt 0.941307 0.154847
vt 0.924078 0.154847
vt 0.924078 0.229768
vt 0.001001 0.941307
vt 0.075922 0.941307
vt 0.075922 0.924078
vt 0.001001 0.924078
vt 0.941307 0.922076
vt 0.941307 0.847155
vt 0.924078 0.847155
vt 0.924078 0.922076
vn 0.000000 1.000000 0.000000
vn 0.000000 1.000000 -0.000001
vn 0.000000 1.000000 0.000002
vn -0.540483 -0.841334 0.000000
vn -0.878903 -0.476943 0.000000
vn -0.673269 -0.476943 -0.564959
vn -0.414045 -0.841334 -0.347423
vn -0.152593 -0.476943 -0.865566
vn -0.093844 -0.841334 -0.532273
vn -0.766015 0.000000 -0.642781
vn -0.173620 0.000000 -0.984802
vn -0.673269 0.476943 -0.564959
vn -0.152593 0.476943 -0.865566
vn -0.379589 0.868496 -0.318735
vn -0.503098 0.740165 -0.446089
vn -0.098636 0.740165 -0.665120
vn -0.085910 0.868496 -0.488174
vn 0.439436 -0.476943 -0.761162
vn 0.270241 -0.841334 -0.468062
vn 0.499985 0.000000 -0.866024
vn 0.439436 0.476943 -0.761162
vn 0.351939 0.740165 -0.572924
vn 0.247963 0.868496 -0.429182
vn 0.825892 -0.476943 -0.300607
vn 0.507889 -0.841334 -0.184851
vn 0.939665 0.000000 -0.341990
vn 0.825892 0.476943 -0.300607
vn 0.637867 0.740165 -0.212653
vn 0.465835 0.868496 -0.169378
vn 0.825892 -0.476943 0.300607
vn 0.507889 -0.841334 0.184851
vn 0.939665 0.000000 0.341990
vn 0.825892 0.476943 0.300607
vn 0.439436 -0.476943 0.761162
vn 0.270241 -0.841334 0.468062
vn 0.499985 0.000000 0.866024
vn 0.439436 0.476943 0.761162
vn -0.152593 -0.476943 0.865566
vn -0.093844 -0.841334 0.532273
vn -0.173620 0.000000 0.984802
vn -0.152593 0.476943 0.865566
vn 0.247688 0.868496 0.429334
vn 0.320170 0.740165 0.591266
vn -0.134770 0.740165 0.658742
vn -0.086215 0.868496 0.488113
vn -0.673269 -0.476943 0.564959
vn -0.414045 -0.841334 0.347423
vn -0.766015 0.000000 0.642781
vn -0.673269 0.476943 0.564959
vn -0.526658 0.740165 0.417982
vn -0.379803 0.868496 0.318491
vn -0.878903 0.476943 0.000000
vn -0.999969 0.000000 0.000000
vn 0.000000 -1.000000 0.000000
vn -0.495682 0.868496 -0.000153
vn -0.672140 0.740165 -0.018311
vn 0.465712 0.868496 0.169683
vn 0.625324 0.740165 0.247108
vn -0.746574 0.000000 -0.665303
vn -0.144260 0.000000 -0.989540
vn 0.525554 0.000000 -0.850760
vn 0.949456 0.000000 -0.313900
vn 0.929097 0.000000 0.369837
vn 0.474003 0.000000 0.880524
vn -0.202883 0.000000 0.979203
vn -0.784837 0.000000 0.619703
vn -0.999557 0.000000 -0.029763
s off
f 58/1/1 60/2/1 59/3/1
f 58/4/1 61/5/1 60/6/1
f 58/7/1 62/8/1 61/9/1
f 58/10/1 63/11/1 62/12/1
f 58/13/1 64/14/1 63/15/1
f 58/16/1 65/17/1 64/18/1
f 58/19/1 66/20/1 65/21/1
f 58/22/2 67/23/2 66/24/2
f 58/25/3 59/26/3 67/27/3
s 1
f 6/28/4 5/29/5 10/30/6 11/31/7
f 11/32/7 10/33/6 15/34/8 16/35/9
f 10/36/6 9/37/10 14/38/11 15/39/8
f 9/40/10 8/41/12 13/42/13 14/43/11
f 49/44/14 7/45/15 12/46/16 50/47/17
f 16/48/9 15/49/8 20/50/18 21/51/19
f 15/52/8 14/53/11 19/54/20 20/55/18
f 14/56/11 13/57/13 18/58/21 19/59/20
f 50/60/17 12/61/16 17/62/22 51/63/23
f 21/64/19 20/65/18 25/66/24 26/67/25
f 20/68/18 19/69/20 24/70/26 25/71/24
f 19/72/20 18/73/21 23/74/27 24/75/26
f 51/76/23 17/77/22 22/78/28 52/79/29
f 26/80/25 25/81/24 29/82/30 30/83/31
f 25/84/24 24/85/26 28/86/32 29/87/30
f 24/88/26 23/89/27 27/90/33 28/91/32
f 30/92/31 29/93/30 35/94/34 36/95/35
f 29/96/30 28/97/32 34/98/36 35/99/34
f 28/100/32 27/101/33 33/102/37 34/103/36
f 36/104/35 35/105/34 40/106/38 41/107/39
f 35/108/34 34/109/36 39/110/40 40/111/38
f 34/112/36 33/113/37 38/114/41 39/115/40
f 54/116/42 32/117/43 37/118/44 55/119/45
f 41/120/39 40/121/38 45/122/46 46/123/47
f 40/124/38 39/125/40 44/126/48 45/127/46
f 39/128/40 38/129/41 43/130/49 44/131/48
f 55/132/45 37/133/44 42/134/50 56/135/51
f 44/136/48 43/137/49 47/138/52 48/139/53
f 31/140/54 6/141/4 11/142/7
f 5/143/5 48/144/53 9/145/10 10/146/6
f 48/147/53 47/148/52 8/149/12 9/150/10
f 57/151/55 4/152/56 7/153/15 49/154/14
f 31/155/54 11/156/7 16/157/9
f 31/158/54 16/159/9 21/160/19
f 31/161/54 21/162/19 26/163/25
f 31/164/54 26/165/25 30/166/31
f 31/167/54 30/168/31 36/169/35
f 31/170/54 36/171/35 41/172/39
f 31/173/54 41/174/39 46/175/47
f 31/176/54 46/177/47 6/178/4
f 46/179/47 45/180/46 5/181/5 6/182/4
f 45/183/46 44/184/48 48/185/53 5/186/5
f 56/187/51 42/188/50 4/189/56 57/190/55
f 8/191/12 49/192/14 50/193/17 13/194/13
f 13/195/13 50/196/17 51/197/23 18/198/21
f 18/199/21 51/200/23 52/201/29 23/202/27
f 23/203/27 52/204/29 53/205/57 27/206/33
f 27/207/33 53/208/57 54/209/42 33/210/37
f 33/211/37 54/212/42 55/213/45 38/214/41
f 38/215/41 55/216/45 56/217/51 43/218/49
f 47/219/52 57/220/55 49/221/14 8/222/12
f 43/223/49 56/224/51 57/225/55 47/226/52
f 52/227/29 22/228/28 3/229/58 53/230/57
f 53/231/57 3/232/58 32/233/43 54/234/42
f 7/235/15 67/236/59 59/237/60 12/238/16
f 17/239/22 60/240/61 61/241/62 22/242/28
f 22/243/28 61/244/62 62/245/63 3/246/58
f 3/247/58 62/248/63 63/249/64 32/250/43
f 32/251/43 63/252/64 64/253/65 37/254/44
f 37/255/44 64/256/65 65/257/66 42/258/50
f 42/259/50 65/260/66 66/261/67 4/262/56
f 4/263/56 66/264/67 67/265/59 7/266/15
f 12/267/16 59/268/60 60/269/61 17/270/22
